<?xml version="1.0"?>
<gpx version="1.1" creator="Xcode">
    <wpt lat="14.0" lon="100.5654763">
         <name>Google</name>
    </wpt>
    <wpt lat="13.799869" lon="100.584890">
         <name>Apple</name>
    </wpt>
</gpx>